-1 0.540304 0.540302
-1 0.540303 0.540302
-0.9 0.621612 0.62161
-0.9 0.62161 0.62161
-0.8 0.696709 0.696707
-0.8 0.696707 0.696707
-0.7 0.764845 0.764842
-0.7 0.764842 0.764842
-0.6 0.825338 0.825336
-0.6 0.825336 0.825336
-0.5 0.877586 0.877583
-0.5 0.877583 0.877583
-0.4 0.921064 0.921061
-0.4 0.921061 0.921061
-0.3 0.95534 0.955336
-0.3 0.955337 0.955336
-0.2 0.98007 0.980067
-0.2 0.980067 0.980067
-0.1 0.995008 0.995004
-0.1 0.995004 0.995004
-1.38778e-16 1 1
-1.38778e-16 1 1
0.1 0.995004 0.995004
0.2 0.980067 0.980067
0.3 0.955337 0.955336
0.4 0.921061 0.921061
0.5 0.877583 0.877583
0.6 0.825336 0.825336
0.7 0.764842 0.764842
0.8 0.696707 0.696707
0.9 0.62161 0.62161
1 0.540303 0.540302
1.1 0.453596 0.453596
1.2 0.362358 0.362358
1.3 0.267499 0.267499
1.4 0.169967 0.169967
1.5 0.0707374 0.0707372
1.6 -0.0291994 -0.0291995
1.7 -0.128844 -0.128844
1.8 -0.227202 -0.227202
1.9 -0.32329 -0.32329
2 -0.416147 -0.416147
2.1 -0.504847 -0.504846
2.2 -0.588502 -0.588501
2.3 -0.666277 -0.666276
2.4 -0.737395 -0.737394
2.5 -0.801145 -0.801144
2.6 -0.85689 -0.856889
2.7 -0.904074 -0.904072
2.8 -0.942224 -0.942222
2.9 -0.97096 -0.970958
3 -0.989994 -0.989992
3.1 -0.999137 -0.999135
3.2 -0.998297 -0.998295
3.3 -0.987482 -0.98748
3.4 -0.966801 -0.966798
3.5 -0.936459 -0.936457
3.6 -0.896761 -0.896758
3.7 -0.848102 -0.8481
3.8 -0.79097 -0.790968
3.9 -0.725935 -0.725932
4 -0.653646 -0.653644
4.1 -0.574826 -0.574824
4.2 -0.490263 -0.490261
4.3 -0.400801 -0.400799
4.4 -0.307334 -0.307333
4.5 -0.210797 -0.210796
4.6 -0.112154 -0.112153
4.7 -0.0123893 -0.0123887
4.8 0.0874986 0.087499
4.9 0.186512 0.186512
5 0.283663 0.283662
5.1 0.377978 0.377978
5.2 0.468518 0.468517
5.3 0.554376 0.554374
5.4 0.634695 0.634693
5.5 0.708672 0.70867
5.6 0.775568 0.775566
5.7 0.834716 0.834713
5.8 0.885523 0.88552
5.9 0.927482 0.927478
6 0.960174 0.96017
6.1 0.983272 0.983268
6.2 0.996546 0.996542
6.3 0.999859 0.999859
6.4 0.993185 0.993185
6.5 0.976588 0.976588
6.6 0.950233 0.950233
6.7 0.914383 0.914383
6.8 0.869398 0.869397
6.9 0.815725 0.815725
7 0.753902 0.753902
7.1 0.684547 0.684547
7.2 0.608352 0.608351
7.3 0.526078 0.526078
7.4 0.438548 0.438547
7.5 0.346636 0.346635
7.6 0.25126 0.25126
7.7 0.153374 0.153374
7.8 0.0539556 0.0539554
7.9 -0.046002 -0.0460021
8 -0.1455 -0.1455
8.1 -0.243544 -0.243544
8.2 -0.339155 -0.339155
8.3 -0.431377 -0.431377
8.4 -0.519289 -0.519289
8.5 -0.602013 -0.602012
8.6 -0.678721 -0.67872
8.7 -0.748648 -0.748647
8.8 -0.811094 -0.811093
8.9 -0.865436 -0.865435
9 -0.911132 -0.91113
9.1 -0.947723 -0.947722
9.2 -0.974845 -0.974844
9.3 -0.992227 -0.992225
9.4 -0.999695 -0.999693
9.5 -0.997174 -0.997172
9.6 -0.98469 -0.984688
9.7 -0.962367 -0.962365
9.8 -0.930429 -0.930426
9.9 -0.889194 -0.889191
10 -0.839074 -0.839072
10.1 -0.780571 -0.780568
10.2 -0.714268 -0.714266
10.3 -0.640829 -0.640826
10.4 -0.560986 -0.560984
10.5 -0.475539 -0.475537
10.6 -0.38534 -0.385338
10.7 -0.291291 -0.291289
10.8 -0.194331 -0.19433
10.9 -0.0954298 -0.0954289


