\relax 
\@writefile{toc}{\contentsline {section}{\numberline {1}Abstract}{1}}
\@writefile{toc}{\contentsline {section}{\numberline {2}ODE Representation of the Cosine Function}{1}}
\@writefile{lof}{\contentsline {figure}{\numberline {1}{\ignorespaces A plot shoving the ODE solution to the cosine function(plus signs) and the GSL cosine function(line), in the interval -1:3.5*pi}}{1}}
\newlabel{fig.cosine}{{1}{1}}
