<?xml version="1.0" encoding="utf-8"  standalone="no"?>
<!DOCTYPE svg PUBLIC "-//W3C//DTD SVG 1.1//EN"
 "http://www.w3.org/Graphics/SVG/1.1/DTD/svg11.dtd">
<svg 
 width="640" height="480"
 viewBox="0 0 640 480"
 xmlns="http://www.w3.org/2000/svg"
 xmlns:xlink="http://www.w3.org/1999/xlink"
>

<title>Gnuplot</title>
<desc>Produced by GNUPLOT 5.0 patchlevel 3 </desc>

<g id="gnuplot_canvas">

<rect x="0" y="0" width="640" height="480" fill="#ffffff"/>
<defs>

	<circle id='gpDot' r='0.5' stroke-width='0.5'/>
	<path id='gpPt0' stroke-width='0.222' stroke='currentColor' d='M-1,0 h2 M0,-1 v2'/>
	<path id='gpPt1' stroke-width='0.222' stroke='currentColor' d='M-1,-1 L1,1 M1,-1 L-1,1'/>
	<path id='gpPt2' stroke-width='0.222' stroke='currentColor' d='M-1,0 L1,0 M0,-1 L0,1 M-1,-1 L1,1 M-1,1 L1,-1'/>
	<rect id='gpPt3' stroke-width='0.222' stroke='currentColor' x='-1' y='-1' width='2' height='2'/>
	<rect id='gpPt4' stroke-width='0.222' stroke='currentColor' fill='currentColor' x='-1' y='-1' width='2' height='2'/>
	<circle id='gpPt5' stroke-width='0.222' stroke='currentColor' cx='0' cy='0' r='1'/>
	<use xlink:href='#gpPt5' id='gpPt6' fill='currentColor' stroke='none'/>
	<path id='gpPt7' stroke-width='0.222' stroke='currentColor' d='M0,-1.33 L-1.33,0.67 L1.33,0.67 z'/>
	<use xlink:href='#gpPt7' id='gpPt8' fill='currentColor' stroke='none'/>
	<use xlink:href='#gpPt7' id='gpPt9' stroke='currentColor' transform='rotate(180)'/>
	<use xlink:href='#gpPt9' id='gpPt10' fill='currentColor' stroke='none'/>
	<use xlink:href='#gpPt3' id='gpPt11' stroke='currentColor' transform='rotate(45)'/>
	<use xlink:href='#gpPt11' id='gpPt12' fill='currentColor' stroke='none'/>
	<path id='gpPt13' stroke-width='0.222' stroke='currentColor' d='M0,1.330 L1.265,0.411 L0.782,-1.067 L-0.782,-1.076 L-1.265,0.411 z'/>
	<use xlink:href='#gpPt13' id='gpPt14' fill='currentColor' stroke='none'/>
	<filter id='textbox' filterUnits='objectBoundingBox' x='0' y='0' height='1' width='1'>
	  <feFlood flood-color='#FFFFFF' flood-opacity='1' result='bgnd'/>
	  <feComposite in='SourceGraphic' in2='bgnd' operator='atop'/>
	</filter>
	<filter id='greybox' filterUnits='objectBoundingBox' x='0' y='0' height='1' width='1'>
	  <feFlood flood-color='lightgrey' flood-opacity='1' result='grey'/>
	  <feComposite in='SourceGraphic' in2='grey' operator='atop'/>
	</filter>
</defs>
<g fill="none" color="#FFFFFF" stroke="currentColor" stroke-width="1.00" stroke-linecap="butt" stroke-linejoin="miter">
</g>
<g fill="none" color="black" stroke="currentColor" stroke-width="1.00" stroke-linecap="butt" stroke-linejoin="miter">
	<path stroke='black'  d='M53.9,444.0 L62.9,444.0 M615.0,444.0 L606.0,444.0  '/>	<g transform="translate(45.6,448.5)" stroke="none" fill="black" font-family="Arial" font-size="12.00"  text-anchor="end">
		<text><tspan font-family="Arial" >-1.5</tspan></text>
	</g>
</g>
<g fill="none" color="black" stroke="currentColor" stroke-width="1.00" stroke-linecap="butt" stroke-linejoin="miter">
	<path stroke='black'  d='M53.9,372.8 L62.9,372.8 M615.0,372.8 L606.0,372.8  '/>	<g transform="translate(45.6,377.3)" stroke="none" fill="black" font-family="Arial" font-size="12.00"  text-anchor="end">
		<text><tspan font-family="Arial" >-1</tspan></text>
	</g>
</g>
<g fill="none" color="black" stroke="currentColor" stroke-width="1.00" stroke-linecap="butt" stroke-linejoin="miter">
	<path stroke='black'  d='M53.9,301.6 L62.9,301.6 M615.0,301.6 L606.0,301.6  '/>	<g transform="translate(45.6,306.1)" stroke="none" fill="black" font-family="Arial" font-size="12.00"  text-anchor="end">
		<text><tspan font-family="Arial" >-0.5</tspan></text>
	</g>
</g>
<g fill="none" color="black" stroke="currentColor" stroke-width="1.00" stroke-linecap="butt" stroke-linejoin="miter">
	<path stroke='black'  d='M53.9,230.3 L62.9,230.3 M615.0,230.3 L606.0,230.3  '/>	<g transform="translate(45.6,234.8)" stroke="none" fill="black" font-family="Arial" font-size="12.00"  text-anchor="end">
		<text><tspan font-family="Arial" > 0</tspan></text>
	</g>
</g>
<g fill="none" color="black" stroke="currentColor" stroke-width="1.00" stroke-linecap="butt" stroke-linejoin="miter">
	<path stroke='black'  d='M53.9,159.1 L62.9,159.1 M615.0,159.1 L606.0,159.1  '/>	<g transform="translate(45.6,163.6)" stroke="none" fill="black" font-family="Arial" font-size="12.00"  text-anchor="end">
		<text><tspan font-family="Arial" > 0.5</tspan></text>
	</g>
</g>
<g fill="none" color="black" stroke="currentColor" stroke-width="1.00" stroke-linecap="butt" stroke-linejoin="miter">
	<path stroke='black'  d='M53.9,87.9 L62.9,87.9 M615.0,87.9 L606.0,87.9  '/>	<g transform="translate(45.6,92.4)" stroke="none" fill="black" font-family="Arial" font-size="12.00"  text-anchor="end">
		<text><tspan font-family="Arial" > 1</tspan></text>
	</g>
</g>
<g fill="none" color="black" stroke="currentColor" stroke-width="1.00" stroke-linecap="butt" stroke-linejoin="miter">
	<path stroke='black'  d='M53.9,16.7 L62.9,16.7 M615.0,16.7 L606.0,16.7  '/>	<g transform="translate(45.6,21.2)" stroke="none" fill="black" font-family="Arial" font-size="12.00"  text-anchor="end">
		<text><tspan font-family="Arial" > 1.5</tspan></text>
	</g>
</g>
<g fill="none" color="black" stroke="currentColor" stroke-width="1.00" stroke-linecap="butt" stroke-linejoin="miter">
	<path stroke='black'  d='M53.9,444.0 L53.9,435.0 M53.9,16.7 L53.9,25.7  '/>	<g transform="translate(53.9,466.5)" stroke="none" fill="black" font-family="Arial" font-size="12.00"  text-anchor="middle">
		<text><tspan font-family="Arial" >-3</tspan></text>
	</g>
</g>
<g fill="none" color="black" stroke="currentColor" stroke-width="1.00" stroke-linecap="butt" stroke-linejoin="miter">
	<path stroke='black'  d='M147.4,444.0 L147.4,435.0 M147.4,16.7 L147.4,25.7  '/>	<g transform="translate(147.4,466.5)" stroke="none" fill="black" font-family="Arial" font-size="12.00"  text-anchor="middle">
		<text><tspan font-family="Arial" >-2</tspan></text>
	</g>
</g>
<g fill="none" color="black" stroke="currentColor" stroke-width="1.00" stroke-linecap="butt" stroke-linejoin="miter">
	<path stroke='black'  d='M240.9,444.0 L240.9,435.0 M240.9,16.7 L240.9,25.7  '/>	<g transform="translate(240.9,466.5)" stroke="none" fill="black" font-family="Arial" font-size="12.00"  text-anchor="middle">
		<text><tspan font-family="Arial" >-1</tspan></text>
	</g>
</g>
<g fill="none" color="black" stroke="currentColor" stroke-width="1.00" stroke-linecap="butt" stroke-linejoin="miter">
	<path stroke='black'  d='M334.5,444.0 L334.5,435.0 M334.5,16.7 L334.5,25.7  '/>	<g transform="translate(334.5,466.5)" stroke="none" fill="black" font-family="Arial" font-size="12.00"  text-anchor="middle">
		<text><tspan font-family="Arial" > 0</tspan></text>
	</g>
</g>
<g fill="none" color="black" stroke="currentColor" stroke-width="1.00" stroke-linecap="butt" stroke-linejoin="miter">
	<path stroke='black'  d='M428.0,444.0 L428.0,435.0 M428.0,16.7 L428.0,25.7  '/>	<g transform="translate(428.0,466.5)" stroke="none" fill="black" font-family="Arial" font-size="12.00"  text-anchor="middle">
		<text><tspan font-family="Arial" > 1</tspan></text>
	</g>
</g>
<g fill="none" color="black" stroke="currentColor" stroke-width="1.00" stroke-linecap="butt" stroke-linejoin="miter">
	<path stroke='black'  d='M521.5,444.0 L521.5,435.0 M521.5,16.7 L521.5,25.7  '/>	<g transform="translate(521.5,466.5)" stroke="none" fill="black" font-family="Arial" font-size="12.00"  text-anchor="middle">
		<text><tspan font-family="Arial" > 2</tspan></text>
	</g>
</g>
<g fill="none" color="black" stroke="currentColor" stroke-width="1.00" stroke-linecap="butt" stroke-linejoin="miter">
	<path stroke='black'  d='M615.0,444.0 L615.0,435.0 M615.0,16.7 L615.0,25.7  '/>	<g transform="translate(615.0,466.5)" stroke="none" fill="black" font-family="Arial" font-size="12.00"  text-anchor="middle">
		<text><tspan font-family="Arial" > 3</tspan></text>
	</g>
</g>
<g fill="none" color="black" stroke="currentColor" stroke-width="1.00" stroke-linecap="butt" stroke-linejoin="miter">
</g>
<g fill="none" color="black" stroke="currentColor" stroke-width="1.00" stroke-linecap="butt" stroke-linejoin="miter">
	<path stroke='black'  d='M53.9,16.7 L53.9,444.0 L615.0,444.0 L615.0,16.7 L53.9,16.7 Z  '/></g>
<g fill="none" color="black" stroke="currentColor" stroke-width="1.00" stroke-linecap="butt" stroke-linejoin="miter">
</g>
	<g id="gnuplot_plot_1" ><title>f(x) = sin2(x)+cos(x)</title>
<g fill="none" color="black" stroke="currentColor" stroke-width="1.00" stroke-linecap="butt" stroke-linejoin="miter">
	<g transform="translate(547.9,39.2)" stroke="none" fill="black" font-family="Arial" font-size="12.00"  text-anchor="end">
		<text><tspan font-family="Arial" >f(x) = sin</tspan><tspan font-family="Arial"  font-size="9.6" dy="-6.00px">2</tspan><tspan font-family="Arial"  font-size="12.0" dy="6.00px">(x)+cos(x)</tspan></text>
	</g>
</g>
<g fill="none" color="black" stroke="currentColor" stroke-width="1.00" stroke-linecap="butt" stroke-linejoin="miter">
	<use xlink:href='#gpPt0' transform='translate(53.9,368.5) scale(4.50)' color='rgb(148,   0, 211)'/>
	<use xlink:href='#gpPt0' transform='translate(83.4,330.4) scale(4.50)' color='rgb(148,   0, 211)'/>
	<use xlink:href='#gpPt0' transform='translate(113.0,262.8) scale(4.50)' color='rgb(148,   0, 211)'/>
	<use xlink:href='#gpPt0' transform='translate(142.5,184.5) scale(4.50)' color='rgb(148,   0, 211)'/>
	<use xlink:href='#gpPt0' transform='translate(172.0,115.3) scale(4.50)' color='rgb(148,   0, 211)'/>
	<use xlink:href='#gpPt0' transform='translate(201.6,69.8) scale(4.50)' color='rgb(148,   0, 211)'/>
	<use xlink:href='#gpPt0' transform='translate(231.1,52.7) scale(4.50)' color='rgb(148,   0, 211)'/>
	<use xlink:href='#gpPt0' transform='translate(260.6,58.2) scale(4.50)' color='rgb(148,   0, 211)'/>
	<use xlink:href='#gpPt0' transform='translate(290.2,74.0) scale(4.50)' color='rgb(148,   0, 211)'/>
	<use xlink:href='#gpPt0' transform='translate(319.7,86.2) scale(4.50)' color='rgb(148,   0, 211)'/>
	<use xlink:href='#gpPt0' transform='translate(349.2,86.2) scale(4.50)' color='rgb(148,   0, 211)'/>
	<use xlink:href='#gpPt0' transform='translate(378.7,74.0) scale(4.50)' color='rgb(148,   0, 211)'/>
	<use xlink:href='#gpPt0' transform='translate(408.3,58.2) scale(4.50)' color='rgb(148,   0, 211)'/>
	<use xlink:href='#gpPt0' transform='translate(437.8,52.7) scale(4.50)' color='rgb(148,   0, 211)'/>
	<use xlink:href='#gpPt0' transform='translate(467.3,69.8) scale(4.50)' color='rgb(148,   0, 211)'/>
	<use xlink:href='#gpPt0' transform='translate(496.9,115.3) scale(4.50)' color='rgb(148,   0, 211)'/>
	<use xlink:href='#gpPt0' transform='translate(526.4,184.5) scale(4.50)' color='rgb(148,   0, 211)'/>
	<use xlink:href='#gpPt0' transform='translate(555.9,262.8) scale(4.50)' color='rgb(148,   0, 211)'/>
	<use xlink:href='#gpPt0' transform='translate(585.5,330.4) scale(4.50)' color='rgb(148,   0, 211)'/>
	<use xlink:href='#gpPt0' transform='translate(615.0,368.5) scale(4.50)' color='rgb(148,   0, 211)'/>
	<use xlink:href='#gpPt0' transform='translate(577.3,34.7) scale(4.50)' color='rgb(148,   0, 211)'/>
</g>
	</g>
	<g id="gnuplot_plot_2" ><title>ANN solution</title>
<g fill="none" color="black" stroke="currentColor" stroke-width="1.00" stroke-linecap="butt" stroke-linejoin="miter">
	<g transform="translate(547.9,57.2)" stroke="none" fill="black" font-family="Arial" font-size="12.00"  text-anchor="end">
		<text><tspan font-family="Arial" >ANN solution</tspan></text>
	</g>
</g>
<g fill="none" color="black" stroke="currentColor" stroke-width="1.00" stroke-linecap="butt" stroke-linejoin="miter">
	<path stroke='rgb(  0, 158, 115)'  d='M556.2,52.7 L598.4,52.7 M53.9,390.1 L55.4,387.7 L56.8,385.2 L58.3,382.6 L59.7,380.0 L61.2,377.4
		L62.7,374.6 L64.1,371.9 L65.6,369.0 L67.1,366.1 L68.5,363.1 L70.0,360.1 L71.4,357.1 L72.9,353.9
		L74.4,350.8 L75.8,347.6 L77.3,344.3 L78.7,341.0 L80.2,337.7 L81.7,334.3 L83.1,330.9 L84.6,327.5
		L86.0,324.0 L87.5,320.5 L89.0,317.0 L90.4,313.5 L91.9,309.9 L93.4,306.3 L94.8,302.7 L96.3,299.1
		L97.7,295.5 L99.2,291.8 L100.7,288.2 L102.1,284.5 L103.6,280.9 L105.0,277.2 L106.5,273.5 L108.0,269.8
		L109.4,266.1 L110.9,262.4 L112.3,258.8 L113.8,255.1 L115.3,251.4 L116.7,247.7 L118.2,244.0 L119.7,240.4
		L121.1,236.7 L122.6,233.0 L124.0,229.4 L125.5,225.8 L127.0,222.1 L128.4,218.5 L129.9,214.9 L131.3,211.3
		L132.8,207.7 L134.3,204.1 L135.7,200.5 L137.2,197.0 L138.6,193.4 L140.1,189.9 L141.6,186.3 L143.0,182.8
		L144.5,179.3 L146.0,175.8 L147.4,172.4 L148.9,168.9 L150.3,165.5 L151.8,162.1 L153.3,158.6 L154.7,155.3
		L156.2,151.9 L157.6,148.5 L159.1,145.2 L160.6,141.9 L162.0,138.6 L163.5,135.4 L165.0,132.2 L166.4,129.0
		L167.9,125.8 L169.3,122.7 L170.8,119.6 L172.3,116.6 L173.7,113.6 L175.2,110.6 L176.6,107.7 L178.1,104.8
		L179.6,102.0 L181.0,99.2 L182.5,96.4 L183.9,93.8 L185.4,91.2 L186.9,88.6 L188.3,86.1 L189.8,83.7
		L191.3,81.3 L192.7,79.1 L194.2,76.8 L195.6,74.7 L197.1,72.6 L198.6,70.6 L200.0,68.7 L201.5,66.9
		L202.9,65.1 L204.4,63.5 L205.9,61.9 L207.3,60.4 L208.8,59.0 L210.2,57.7 L211.7,56.4 L213.2,55.3
		L214.6,54.2 L216.1,53.3 L217.6,52.4 L219.0,51.6 L220.5,50.9 L221.9,50.3 L223.4,49.7 L224.9,49.3
		L226.3,48.9 L227.8,48.6 L229.2,48.4 L230.7,48.3 L232.2,48.3 L233.6,48.3 L235.1,48.4 L236.5,48.5
		L238.0,48.8 L239.5,49.0 L240.9,49.4 L242.4,49.8 L243.9,50.3 L245.3,50.8 L246.8,51.4 L248.2,52.0
		L249.7,52.7 L251.2,53.4 L252.6,54.1 L254.1,54.9 L255.5,55.7 L257.0,56.5 L258.5,57.4 L259.9,58.3
		L261.4,59.2 L262.9,60.1 L264.3,61.0 L265.8,61.9 L267.2,62.9 L268.7,63.8 L270.2,64.8 L271.6,65.8
		L273.1,66.7 L274.5,67.7 L276.0,68.6 L277.5,69.5 L278.9,70.4 L280.4,71.4 L281.8,72.2 L283.3,73.1
		L284.8,74.0 L286.2,74.8 L287.7,75.6 L289.2,76.4 L290.6,77.2 L292.1,78.0 L293.5,78.7 L295.0,79.4
		L296.5,80.1 L297.9,80.7 L299.4,81.3 L300.8,81.9 L302.3,82.5 L303.8,83.0 L305.2,83.5 L306.7,84.0
		L308.1,84.4 L309.6,84.8 L311.1,85.2 L312.5,85.5 L314.0,85.9 L315.5,86.1 L316.9,86.4 L318.4,86.6
		L319.8,86.8 L321.3,87.0 L322.8,87.1 L324.2,87.2 L325.7,87.3 L327.1,87.3 L328.6,87.4 L330.1,87.4
		L331.5,87.3 L333.0,87.3 L334.5,87.2 L335.9,87.0 L337.4,86.9 L338.8,86.7 L340.3,86.5 L341.8,86.3
		L343.2,86.1 L344.7,85.8 L346.1,85.5 L347.6,85.2 L349.1,84.8 L350.5,84.5 L352.0,84.1 L353.4,83.6
		L354.9,83.2 L356.4,82.8 L357.8,82.3 L359.3,81.8 L360.8,81.3 L362.2,80.7 L363.7,80.2 L365.1,79.6
		L366.6,79.0 L368.1,78.4 L369.5,77.8 L371.0,77.1 L372.4,76.5 L373.9,75.8 L375.4,75.1 L376.8,74.4
		L378.3,73.7 L379.7,73.0 L381.2,72.3 L382.7,71.5 L384.1,70.8 L385.6,70.0 L387.1,69.3 L388.5,68.5
		L390.0,67.8 L391.4,67.0 L392.9,66.2 L394.4,65.5 L395.8,64.7 L397.3,64.0 L398.7,63.2 L400.2,62.5
		L401.7,61.7 L403.1,61.0 L404.6,60.3 L406.0,59.6 L407.5,58.9 L409.0,58.3 L410.4,57.6 L411.9,57.0
		L413.4,56.4 L414.8,55.9 L416.3,55.3 L417.7,54.8 L419.2,54.3 L420.7,53.9 L422.1,53.5 L423.6,53.1
		L425.0,52.8 L426.5,52.5 L428.0,52.3 L429.4,52.1 L430.9,51.9 L432.4,51.9 L433.8,51.8 L435.3,51.8
		L436.7,51.9 L438.2,52.0 L439.7,52.2 L441.1,52.5 L442.6,52.8 L444.0,53.2 L445.5,53.7 L447.0,54.2
		L448.4,54.8 L449.9,55.5 L451.3,56.2 L452.8,57.0 L454.3,57.9 L455.7,58.9 L457.2,60.0 L458.7,61.1
		L460.1,62.3 L461.6,63.6 L463.0,65.0 L464.5,66.4 L466.0,68.0 L467.4,69.6 L468.9,71.3 L470.3,73.0
		L471.8,74.9 L473.3,76.8 L474.7,78.8 L476.2,80.9 L477.6,83.1 L479.1,85.3 L480.6,87.7 L482.0,90.0
		L483.5,92.5 L485.0,95.0 L486.4,97.6 L487.9,100.3 L489.3,103.0 L490.8,105.8 L492.3,108.6 L493.7,111.5
		L495.2,114.5 L496.6,117.5 L498.1,120.6 L499.6,123.7 L501.0,126.8 L502.5,130.0 L503.9,133.2 L505.4,136.5
		L506.9,139.8 L508.3,143.1 L509.8,146.5 L511.3,149.9 L512.7,153.3 L514.2,156.7 L515.6,160.1 L517.1,163.6
		L518.6,167.0 L520.0,170.5 L521.5,174.0 L522.9,177.4 L524.4,180.9 L525.9,184.4 L527.3,187.9 L528.8,191.4
		L530.3,194.9 L531.7,198.4 L533.2,201.8 L534.6,205.3 L536.1,208.8 L537.6,212.2 L539.0,215.7 L540.5,219.2
		L541.9,222.6 L543.4,226.1 L544.9,229.6 L546.3,233.0 L547.8,236.5 L549.2,240.0 L550.7,243.4 L552.2,246.9
		L553.6,250.4 L555.1,254.0 L556.6,257.5 L558.0,261.1 L559.5,264.6 L560.9,268.2 L562.4,271.8 L563.9,275.5
		L565.3,279.1 L566.8,282.8 L568.2,286.5 L569.7,290.2 L571.2,293.9 L572.6,297.7 L574.1,301.4 L575.5,305.2
		L577.0,308.9 L578.5,312.7 L579.9,316.4 L581.4,320.1 L582.9,323.8 L584.3,327.5 L585.8,331.0 L587.2,334.6
		L588.7,338.0 L590.2,341.3 L591.6,344.6 L593.1,347.7 L594.5,350.7 L596.0,353.5 L597.5,356.1 L598.9,358.5
		L600.4,360.8 L601.8,362.8 L603.3,364.6 L604.8,366.1 L606.2,367.3 L607.7,368.2 L609.2,368.9 L610.6,369.2
		L612.1,369.2 L613.5,368.9 L615.0,368.2  '/></g>
	</g>
<g fill="none" color="#FFFFFF" stroke="rgb(  0, 158, 115)" stroke-width="2.00" stroke-linecap="butt" stroke-linejoin="miter">
</g>
<g fill="none" color="black" stroke="currentColor" stroke-width="2.00" stroke-linecap="butt" stroke-linejoin="miter">
</g>
<g fill="none" color="black" stroke="black" stroke-width="1.00" stroke-linecap="butt" stroke-linejoin="miter">
</g>
<g fill="none" color="black" stroke="currentColor" stroke-width="1.00" stroke-linecap="butt" stroke-linejoin="miter">
	<path stroke='black'  d='M53.9,16.7 L53.9,444.0 L615.0,444.0 L615.0,16.7 L53.9,16.7 Z  '/></g>
<g fill="none" color="black" stroke="currentColor" stroke-width="1.00" stroke-linecap="butt" stroke-linejoin="miter">
</g>
</g>
</svg>

