\relax 
\@writefile{toc}{\contentsline {section}{\numberline {1}Abstract}{1}}
\@writefile{toc}{\contentsline {section}{\numberline {2}The Error Function}{1}}
\@writefile{lof}{\contentsline {figure}{\numberline {1}{\ignorespaces A plot of my numerical computation of the error function in the interval $-3<x<3$}}{1}}
\newlabel{fig.error_function}{{1}{1}}
\@writefile{toc}{\contentsline {subsection}{\numberline {2.1}Derivative and Integral}{1}}
