<?xml version="1.0" encoding="utf-8"  standalone="no"?>
<!DOCTYPE svg PUBLIC "-//W3C//DTD SVG 1.1//EN"
 "http://www.w3.org/Graphics/SVG/1.1/DTD/svg11.dtd">
<svg 
 width="600" height="480"
 viewBox="0 0 600 480"
 xmlns="http://www.w3.org/2000/svg"
 xmlns:xlink="http://www.w3.org/1999/xlink"
>

<title>Gnuplot</title>
<desc>Produced by GNUPLOT 5.0 patchlevel 3 </desc>

<g id="gnuplot_canvas">

<rect x="0" y="0" width="600" height="480" fill="#ffffff"/>
<defs>

	<circle id='gpDot' r='0.5' stroke-width='0.5'/>
	<path id='gpPt0' stroke-width='0.222' stroke='currentColor' d='M-1,0 h2 M0,-1 v2'/>
	<path id='gpPt1' stroke-width='0.222' stroke='currentColor' d='M-1,-1 L1,1 M1,-1 L-1,1'/>
	<path id='gpPt2' stroke-width='0.222' stroke='currentColor' d='M-1,0 L1,0 M0,-1 L0,1 M-1,-1 L1,1 M-1,1 L1,-1'/>
	<rect id='gpPt3' stroke-width='0.222' stroke='currentColor' x='-1' y='-1' width='2' height='2'/>
	<rect id='gpPt4' stroke-width='0.222' stroke='currentColor' fill='currentColor' x='-1' y='-1' width='2' height='2'/>
	<circle id='gpPt5' stroke-width='0.222' stroke='currentColor' cx='0' cy='0' r='1'/>
	<use xlink:href='#gpPt5' id='gpPt6' fill='currentColor' stroke='none'/>
	<path id='gpPt7' stroke-width='0.222' stroke='currentColor' d='M0,-1.33 L-1.33,0.67 L1.33,0.67 z'/>
	<use xlink:href='#gpPt7' id='gpPt8' fill='currentColor' stroke='none'/>
	<use xlink:href='#gpPt7' id='gpPt9' stroke='currentColor' transform='rotate(180)'/>
	<use xlink:href='#gpPt9' id='gpPt10' fill='currentColor' stroke='none'/>
	<use xlink:href='#gpPt3' id='gpPt11' stroke='currentColor' transform='rotate(45)'/>
	<use xlink:href='#gpPt11' id='gpPt12' fill='currentColor' stroke='none'/>
	<path id='gpPt13' stroke-width='0.222' stroke='currentColor' d='M0,1.330 L1.265,0.411 L0.782,-1.067 L-0.782,-1.076 L-1.265,0.411 z'/>
	<use xlink:href='#gpPt13' id='gpPt14' fill='currentColor' stroke='none'/>
	<filter id='textbox' filterUnits='objectBoundingBox' x='0' y='0' height='1' width='1'>
	  <feFlood flood-color='#FFFFFF' flood-opacity='1' result='bgnd'/>
	  <feComposite in='SourceGraphic' in2='bgnd' operator='atop'/>
	</filter>
	<filter id='greybox' filterUnits='objectBoundingBox' x='0' y='0' height='1' width='1'>
	  <feFlood flood-color='lightgrey' flood-opacity='1' result='grey'/>
	  <feComposite in='SourceGraphic' in2='grey' operator='atop'/>
	</filter>
</defs>
<g fill="none" color="#FFFFFF" stroke="black" stroke-width="1.00" stroke-linecap="butt" stroke-linejoin="miter">
</g>
<g fill="none" color="black" stroke="currentColor" stroke-width="1.00" stroke-linecap="butt" stroke-linejoin="miter">
	<path stroke='black'  d='M63.6,422.4 L72.6,422.4 M575.0,422.4 L566.0,422.4  '/>	<g transform="translate(55.3,426.9)" stroke="none" fill="black" font-family="Arial" font-size="12.00"  text-anchor="end">
		<text><tspan font-family="Arial" > 0</tspan></text>
	</g>
</g>
<g fill="none" color="black" stroke="currentColor" stroke-width="1.00" stroke-linecap="butt" stroke-linejoin="miter">
	<path stroke='black'  d='M63.6,369.8 L72.6,369.8 M575.0,369.8 L566.0,369.8  '/>	<g transform="translate(55.3,374.3)" stroke="none" fill="black" font-family="Arial" font-size="12.00"  text-anchor="end">
		<text><tspan font-family="Arial" > 2</tspan></text>
	</g>
</g>
<g fill="none" color="black" stroke="currentColor" stroke-width="1.00" stroke-linecap="butt" stroke-linejoin="miter">
	<path stroke='black'  d='M63.6,317.2 L72.6,317.2 M575.0,317.2 L566.0,317.2  '/>	<g transform="translate(55.3,321.7)" stroke="none" fill="black" font-family="Arial" font-size="12.00"  text-anchor="end">
		<text><tspan font-family="Arial" > 4</tspan></text>
	</g>
</g>
<g fill="none" color="black" stroke="currentColor" stroke-width="1.00" stroke-linecap="butt" stroke-linejoin="miter">
	<path stroke='black'  d='M63.6,264.6 L72.6,264.6 M575.0,264.6 L566.0,264.6  '/>	<g transform="translate(55.3,269.1)" stroke="none" fill="black" font-family="Arial" font-size="12.00"  text-anchor="end">
		<text><tspan font-family="Arial" > 6</tspan></text>
	</g>
</g>
<g fill="none" color="black" stroke="currentColor" stroke-width="1.00" stroke-linecap="butt" stroke-linejoin="miter">
	<path stroke='black'  d='M63.6,211.9 L72.6,211.9 M575.0,211.9 L566.0,211.9  '/>	<g transform="translate(55.3,216.4)" stroke="none" fill="black" font-family="Arial" font-size="12.00"  text-anchor="end">
		<text><tspan font-family="Arial" > 8</tspan></text>
	</g>
</g>
<g fill="none" color="black" stroke="currentColor" stroke-width="1.00" stroke-linecap="butt" stroke-linejoin="miter">
	<path stroke='black'  d='M63.6,159.3 L72.6,159.3 M575.0,159.3 L566.0,159.3  '/>	<g transform="translate(55.3,163.8)" stroke="none" fill="black" font-family="Arial" font-size="12.00"  text-anchor="end">
		<text><tspan font-family="Arial" > 10</tspan></text>
	</g>
</g>
<g fill="none" color="black" stroke="currentColor" stroke-width="1.00" stroke-linecap="butt" stroke-linejoin="miter">
	<path stroke='black'  d='M63.6,106.7 L72.6,106.7 M575.0,106.7 L566.0,106.7  '/>	<g transform="translate(55.3,111.2)" stroke="none" fill="black" font-family="Arial" font-size="12.00"  text-anchor="end">
		<text><tspan font-family="Arial" > 12</tspan></text>
	</g>
</g>
<g fill="none" color="black" stroke="currentColor" stroke-width="1.00" stroke-linecap="butt" stroke-linejoin="miter">
	<path stroke='black'  d='M63.6,54.1 L72.6,54.1 M575.0,54.1 L566.0,54.1  '/>	<g transform="translate(55.3,58.6)" stroke="none" fill="black" font-family="Arial" font-size="12.00"  text-anchor="end">
		<text><tspan font-family="Arial" > 14</tspan></text>
	</g>
</g>
<g fill="none" color="black" stroke="currentColor" stroke-width="1.00" stroke-linecap="butt" stroke-linejoin="miter">
	<path stroke='black'  d='M63.6,422.4 L63.6,413.4 M63.6,54.1 L63.6,63.1  '/>	<g transform="translate(63.6,444.9)" stroke="none" fill="black" font-family="Arial" font-size="12.00"  text-anchor="middle">
		<text><tspan font-family="Arial" > 0</tspan></text>
	</g>
</g>
<g fill="none" color="black" stroke="currentColor" stroke-width="1.00" stroke-linecap="butt" stroke-linejoin="miter">
	<path stroke='black'  d='M114.7,422.4 L114.7,413.4 M114.7,54.1 L114.7,63.1  '/>	<g transform="translate(114.7,444.9)" stroke="none" fill="black" font-family="Arial" font-size="12.00"  text-anchor="middle">
		<text><tspan font-family="Arial" > 1</tspan></text>
	</g>
</g>
<g fill="none" color="black" stroke="currentColor" stroke-width="1.00" stroke-linecap="butt" stroke-linejoin="miter">
	<path stroke='black'  d='M165.9,422.4 L165.9,413.4 M165.9,54.1 L165.9,63.1  '/>	<g transform="translate(165.9,444.9)" stroke="none" fill="black" font-family="Arial" font-size="12.00"  text-anchor="middle">
		<text><tspan font-family="Arial" > 2</tspan></text>
	</g>
</g>
<g fill="none" color="black" stroke="currentColor" stroke-width="1.00" stroke-linecap="butt" stroke-linejoin="miter">
	<path stroke='black'  d='M217.0,422.4 L217.0,413.4 M217.0,54.1 L217.0,63.1  '/>	<g transform="translate(217.0,444.9)" stroke="none" fill="black" font-family="Arial" font-size="12.00"  text-anchor="middle">
		<text><tspan font-family="Arial" > 3</tspan></text>
	</g>
</g>
<g fill="none" color="black" stroke="currentColor" stroke-width="1.00" stroke-linecap="butt" stroke-linejoin="miter">
	<path stroke='black'  d='M268.2,422.4 L268.2,413.4 M268.2,54.1 L268.2,63.1  '/>	<g transform="translate(268.2,444.9)" stroke="none" fill="black" font-family="Arial" font-size="12.00"  text-anchor="middle">
		<text><tspan font-family="Arial" > 4</tspan></text>
	</g>
</g>
<g fill="none" color="black" stroke="currentColor" stroke-width="1.00" stroke-linecap="butt" stroke-linejoin="miter">
	<path stroke='black'  d='M319.3,422.4 L319.3,413.4 M319.3,54.1 L319.3,63.1  '/>	<g transform="translate(319.3,444.9)" stroke="none" fill="black" font-family="Arial" font-size="12.00"  text-anchor="middle">
		<text><tspan font-family="Arial" > 5</tspan></text>
	</g>
</g>
<g fill="none" color="black" stroke="currentColor" stroke-width="1.00" stroke-linecap="butt" stroke-linejoin="miter">
	<path stroke='black'  d='M370.4,422.4 L370.4,413.4 M370.4,54.1 L370.4,63.1  '/>	<g transform="translate(370.4,444.9)" stroke="none" fill="black" font-family="Arial" font-size="12.00"  text-anchor="middle">
		<text><tspan font-family="Arial" > 6</tspan></text>
	</g>
</g>
<g fill="none" color="black" stroke="currentColor" stroke-width="1.00" stroke-linecap="butt" stroke-linejoin="miter">
	<path stroke='black'  d='M421.6,422.4 L421.6,413.4 M421.6,54.1 L421.6,63.1  '/>	<g transform="translate(421.6,444.9)" stroke="none" fill="black" font-family="Arial" font-size="12.00"  text-anchor="middle">
		<text><tspan font-family="Arial" > 7</tspan></text>
	</g>
</g>
<g fill="none" color="black" stroke="currentColor" stroke-width="1.00" stroke-linecap="butt" stroke-linejoin="miter">
	<path stroke='black'  d='M472.7,422.4 L472.7,413.4 M472.7,54.1 L472.7,63.1  '/>	<g transform="translate(472.7,444.9)" stroke="none" fill="black" font-family="Arial" font-size="12.00"  text-anchor="middle">
		<text><tspan font-family="Arial" > 8</tspan></text>
	</g>
</g>
<g fill="none" color="black" stroke="currentColor" stroke-width="1.00" stroke-linecap="butt" stroke-linejoin="miter">
	<path stroke='black'  d='M523.9,422.4 L523.9,413.4 M523.9,54.1 L523.9,63.1  '/>	<g transform="translate(523.9,444.9)" stroke="none" fill="black" font-family="Arial" font-size="12.00"  text-anchor="middle">
		<text><tspan font-family="Arial" > 9</tspan></text>
	</g>
</g>
<g fill="none" color="black" stroke="currentColor" stroke-width="1.00" stroke-linecap="butt" stroke-linejoin="miter">
	<path stroke='black'  d='M575.0,422.4 L575.0,413.4 M575.0,54.1 L575.0,63.1  '/>	<g transform="translate(575.0,444.9)" stroke="none" fill="black" font-family="Arial" font-size="12.00"  text-anchor="middle">
		<text><tspan font-family="Arial" > 10</tspan></text>
	</g>
</g>
<g fill="none" color="black" stroke="currentColor" stroke-width="1.00" stroke-linecap="butt" stroke-linejoin="miter">
</g>
<g fill="none" color="black" stroke="currentColor" stroke-width="1.00" stroke-linecap="butt" stroke-linejoin="miter">
	<path stroke='black'  d='M63.6,54.1 L63.6,422.4 L575.0,422.4 L575.0,54.1 L63.6,54.1 Z  '/></g>
<g fill="none" color="black" stroke="currentColor" stroke-width="1.00" stroke-linecap="butt" stroke-linejoin="miter">
	<g transform="translate(17.6,238.3) rotate(270)" stroke="none" fill="black" font-family="Arial" font-size="12.00"  text-anchor="middle">
		<text><tspan font-family="Arial" >Integral</tspan></text>
	</g>
</g>
<g fill="none" color="black" stroke="currentColor" stroke-width="1.00" stroke-linecap="butt" stroke-linejoin="miter">
	<g transform="translate(319.3,471.9)" stroke="none" fill="black" font-family="Arial" font-size="12.00"  text-anchor="middle">
		<text><tspan font-family="Arial" >x</tspan></text>
	</g>
</g>
<g fill="none" color="black" stroke="currentColor" stroke-width="1.00" stroke-linecap="butt" stroke-linejoin="miter">
	<g transform="translate(319.3,31.6)" stroke="none" fill="black" font-family="Arial" font-size="12.00"  text-anchor="middle">
		<text><tspan font-family="Arial" >Integral of splines from 0 to x</tspan></text>
	</g>
</g>
	<g id="gnuplot_plot_1" ><title>Lin. Int</title>
<g fill="none" color="black" stroke="currentColor" stroke-width="1.00" stroke-linecap="butt" stroke-linejoin="miter">
	<g transform="translate(146.6,76.6)" stroke="none" fill="black" font-family="Arial" font-size="12.00"  text-anchor="end">
		<text><tspan font-family="Arial" >Lin. Int</tspan></text>
	</g>
</g>
<g fill="none" color="black" stroke="currentColor" stroke-width="1.00" stroke-linecap="butt" stroke-linejoin="miter">
	<path stroke='rgb(148,   0, 211)'  d='M154.9,72.1 L197.1,72.1 M89.2,422.4 L94.3,420.2 L99.4,418.1 L104.5,416.1 L109.6,414.1 L114.7,412.2
		L119.9,410.3 L125.0,408.5 L130.1,406.8 L135.2,405.1 L140.3,403.5 L145.4,401.9 L150.5,400.1 L155.7,398.1
		L160.8,396.0 L165.9,393.8 L171.0,391.4 L176.1,388.8 L181.2,386.1 L186.3,383.2 L191.5,380.1 L196.6,377.0
		L201.7,373.8 L206.8,370.6 L211.9,367.2 L217.0,363.9 L222.1,360.5 L227.2,357.0 L232.4,353.4 L237.5,349.8
		L242.6,346.2 L247.7,342.5 L252.8,338.7 L257.9,334.8 L263.0,330.8 L268.2,326.8 L273.3,322.6 L278.4,318.4
		L283.5,314.1 L288.6,309.7 L293.7,305.3 L298.8,300.8 L304.0,296.5 L309.1,292.4 L314.2,288.4 L319.3,284.5
		L324.4,280.7 L329.5,277.1 L334.6,273.6 L339.8,270.2 L344.9,267.0 L350.0,263.8 L355.1,260.5 L360.2,257.2
		L365.3,253.7 L370.4,250.2 L375.6,246.5 L380.7,242.8 L385.8,239.0 L390.9,235.1 L396.0,231.1 L401.1,227.0
		L406.2,222.7 L411.4,218.2 L416.5,213.6 L421.6,208.8 L426.7,203.8 L431.8,198.7 L436.9,193.4 L442.0,188.0
		L447.2,182.4 L452.3,176.7 L457.4,171.1 L462.5,165.6 L467.6,160.2 L472.7,154.8 L477.8,149.5 L482.9,144.3
		L488.1,139.2 L493.2,134.1 L498.3,129.1 L503.4,124.1 L508.5,119.0 L513.6,113.8 L518.7,108.4 L523.9,102.9
		L529.0,97.2 L534.1,91.5 L539.2,85.6 L544.3,79.6 L549.4,73.5  '/></g>
	</g>
	<g id="gnuplot_plot_2" ><title>Quad. Int</title>
<g fill="none" color="black" stroke="currentColor" stroke-width="1.00" stroke-linecap="butt" stroke-linejoin="miter">
	<g transform="translate(146.6,94.6)" stroke="none" fill="black" font-family="Arial" font-size="12.00"  text-anchor="end">
		<text><tspan font-family="Arial" >Quad. Int</tspan></text>
	</g>
</g>
<g fill="none" color="black" stroke="currentColor" stroke-width="1.00" stroke-linecap="butt" stroke-linejoin="miter">
	<path stroke='rgb(  0, 158, 115)'  d='M154.9,90.1 L197.1,90.1 M89.2,422.4 L94.3,420.6 L99.4,419.5 L104.5,418.9 L109.6,418.7 L114.7,418.7
		L119.9,418.8 L125.0,418.8 L130.1,418.6 L135.2,417.9 L140.3,416.7 L145.4,414.8 L150.5,412.3 L155.7,409.2
		L160.8,405.8 L165.9,402.2 L171.0,398.4 L176.1,394.5 L181.2,390.7 L186.3,387.1 L191.5,383.8 L196.6,380.9
		L201.7,378.3 L206.8,375.9 L211.9,373.7 L217.0,371.5 L222.1,369.2 L227.2,366.8 L232.4,364.1 L237.5,361.1
		L242.6,357.7 L247.7,353.8 L252.8,349.4 L257.9,344.7 L263.0,339.7 L268.2,334.6 L273.3,329.3 L278.4,324.1
		L283.5,319.0 L288.6,314.0 L293.7,309.4 L298.8,305.0 L304.0,301.0 L309.1,297.3 L314.2,293.8 L319.3,290.4
		L324.4,287.3 L329.5,284.1 L334.6,281.1 L339.8,278.0 L344.9,274.9 L350.0,271.7 L355.1,268.4 L360.2,265.0
		L365.3,261.6 L370.4,258.0 L375.6,254.4 L380.7,250.6 L385.8,246.8 L390.9,242.9 L396.0,238.9 L401.1,234.8
		L406.2,230.6 L411.4,226.3 L416.5,221.9 L421.6,217.3 L426.7,212.5 L431.8,207.6 L436.9,202.5 L442.0,197.1
		L447.2,191.5 L452.3,185.7 L457.4,179.7 L462.5,173.6 L467.6,167.4 L472.7,161.3 L477.8,155.2 L482.9,149.2
		L488.1,143.5 L493.2,138.0 L498.3,132.9 L503.4,128.2 L508.5,123.7 L513.6,119.4 L518.7,115.2 L523.9,111.0
		L529.0,106.7 L534.1,102.1 L539.2,97.2 L544.3,91.9 L549.4,86.0  '/></g>
	</g>
	<g id="gnuplot_plot_3" ><title>Cubic Int</title>
<g fill="none" color="black" stroke="currentColor" stroke-width="1.00" stroke-linecap="butt" stroke-linejoin="miter">
	<g transform="translate(146.6,112.6)" stroke="none" fill="black" font-family="Arial" font-size="12.00"  text-anchor="end">
		<text><tspan font-family="Arial" >Cubic Int</tspan></text>
	</g>
</g>
<g fill="none" color="black" stroke="currentColor" stroke-width="1.00" stroke-linecap="butt" stroke-linejoin="miter">
	<path stroke='rgb( 86, 180, 233)'  d='M154.9,108.1 L197.1,108.1 M89.2,422.4 L94.3,420.3 L99.4,418.2 L104.5,416.4 L109.6,414.6 L114.7,412.9
		L119.9,411.3 L125.0,409.8 L130.1,408.3 L135.2,406.8 L140.3,405.2 L145.4,403.6 L150.5,401.9 L155.7,400.1
		L160.8,398.0 L165.9,395.9 L171.0,393.5 L176.1,390.9 L181.2,388.2 L186.3,385.3 L191.5,382.3 L196.6,379.1
		L201.7,375.8 L206.8,372.5 L211.9,369.1 L217.0,365.7 L222.1,362.2 L227.2,358.7 L232.4,355.2 L237.5,351.6
		L242.6,348.0 L247.7,344.3 L252.8,340.4 L257.9,336.5 L263.0,332.4 L268.2,328.2 L273.3,323.9 L278.4,319.5
		L283.5,315.1 L288.6,310.6 L293.7,306.0 L298.8,301.6 L304.0,297.2 L309.1,292.9 L314.2,288.8 L319.3,284.8
		L324.4,281.1 L329.5,277.4 L334.6,274.0 L339.8,270.7 L344.9,267.5 L350.0,264.4 L355.1,261.3 L360.2,258.2
		L365.3,255.1 L370.4,251.9 L375.6,248.6 L380.7,245.2 L385.8,241.6 L390.9,237.8 L396.0,233.9 L401.1,229.7
		L406.2,225.4 L411.4,220.8 L416.5,216.0 L421.6,211.0 L426.7,205.8 L431.8,200.4 L436.9,194.9 L442.0,189.3
		L447.2,183.6 L452.3,177.9 L457.4,172.2 L462.5,166.6 L467.6,161.1 L472.7,155.7 L477.8,150.4 L482.9,145.2
		L488.1,140.1 L493.2,135.0 L498.3,130.1 L503.4,125.2 L508.5,120.2 L513.6,115.2 L518.7,110.1 L523.9,104.8
		L529.0,99.5 L534.1,93.9 L539.2,88.2 L544.3,82.3 L549.4,76.2  '/></g>
	</g>
<g fill="none" color="#FFFFFF" stroke="rgb( 86, 180, 233)" stroke-width="2.00" stroke-linecap="butt" stroke-linejoin="miter">
</g>
<g fill="none" color="black" stroke="currentColor" stroke-width="2.00" stroke-linecap="butt" stroke-linejoin="miter">
</g>
<g fill="none" color="black" stroke="black" stroke-width="1.00" stroke-linecap="butt" stroke-linejoin="miter">
</g>
<g fill="none" color="black" stroke="currentColor" stroke-width="1.00" stroke-linecap="butt" stroke-linejoin="miter">
	<path stroke='black'  d='M63.6,54.1 L63.6,422.4 L575.0,422.4 L575.0,54.1 L63.6,54.1 Z  '/></g>
<g fill="none" color="black" stroke="currentColor" stroke-width="1.00" stroke-linecap="butt" stroke-linejoin="miter">
</g>
</g>
</svg>

