0 1 0 -0 1
0.3 0.955202 -0.29616 -0.29552 0.955336
0.6 0.824701 -0.565786 -0.564642 0.825336
0.9 0.620193 -0.784684 -0.783327 0.62161
1.2 0.360018 -0.933208 -0.932039 0.362358
1.5 0.0675106 -0.998025 -0.997495 0.0707372
1.8 -0.231089 -0.97331 -0.973848 -0.227202
2.1 -0.508993 -0.861269 -0.863209 -0.504846
2.4 -0.741264 -0.671943 -0.675463 -0.737394
2.7 -0.90706 -0.422308 -0.42738 -0.904072
3 -0.991497 -0.134755 -0.14112 -0.989992
3.3 -0.986989 0.164924 0.157746 -0.98748
3.6 -0.893931 0.449843 0.44252 -0.896758
3.9 -0.720659 0.694437 0.687766 -0.725932
4.2 -0.482711 0.876759 0.871576 -0.490261
4.5 -0.201426 0.980442 0.97753 -0.210796
4.8 0.0979655 0.996174 0.996165 0.087499
5.1 0.388604 0.922535 0.925815 0.377978
5.4 0.644413 0.766118 0.772764 0.634693
5.7 0.842439 0.540949 0.550686 0.834713
6 0.964907 0.267219 0.279415 0.96017


0 1 1
0.00696666 0.93276 0.932705
0.013592 0.873009 0.872913
0.0200285 0.818626 0.818497
0.0263635 0.768409 0.768254
0.0326485 0.721632 0.721455
0.0389149 0.677829 0.677634
0.0451821 0.636679 0.636468
0.0514627 0.597947 0.597723
0.0577653 0.561448 0.561214
0.0640959 0.527031 0.526787
0.0704591 0.494561 0.494311
0.0768589 0.463923 0.463667
0.0832988 0.435009 0.434748
0.089782 0.407721 0.407457
0.096312 0.381966 0.3817
0.102892 0.357659 0.357392
0.109526 0.334719 0.334452
0.116218 0.313069 0.312803
0.122972 0.29264 0.292376
0.129792 0.273363 0.273101
0.136683 0.255174 0.254915
0.14365 0.238015 0.237759
0.150699 0.221828 0.221575
0.157837 0.20656 0.206312
0.165069 0.192161 0.191917
0.172404 0.178583 0.178344
0.179849 0.165783 0.165549
0.187413 0.153717 0.153489
0.195105 0.142347 0.142124
0.202937 0.131635 0.131418
0.21092 0.121546 0.121335
0.219067 0.112047 0.111841
0.227393 0.103107 0.102907
0.235913 0.0946965 0.0945025
0.244645 0.0867882 0.0866002
0.25361 0.0793566 0.0791745
0.26283 0.0723774 0.0722012
0.27233 0.0658281 0.0656578
0.282139 0.0596876 0.0595231
0.29229 0.0539361 0.0537773
0.302821 0.0485554 0.0484022
0.313774 0.0435283 0.0433807
0.3252 0.038839 0.0386969
0.337156 0.034473 0.0343361
0.34971 0.0304168 0.030285
0.362944 0.026658 0.0265312
0.376951 0.0231854 0.0230633
0.391848 0.0199888 0.0198713
0.407773 0.017059 0.0169459
0.424897 0.0143879 0.0142789
0.443433 0.0119682 0.0118631
0.463647 0.0097934 0.00969183
0.485883 0.00785786 0.00775956
0.5 0.00682687 0.00673795
